<?xml version="1.0" encoding="UTF-8" standalone="no"?>
<svg
   xmlns:dc="http://purl.org/dc/elements/1.1/"
   xmlns:cc="http://creativecommons.org/ns#"
   xmlns:rdf="http://www.w3.org/1999/02/22-rdf-syntax-ns#"
   xmlns:svg="http://www.w3.org/2000/svg"
   xmlns="http://www.w3.org/2000/svg"
   viewBox="0 0 490.75601 189.356"
   height="189.356"
   width="490.75601"
   xml:space="preserve"
   id="svg2"
   version="1.1"><metadata
     id="metadata8"><rdf:RDF><cc:Work
         rdf:about=""><dc:format>image/svg+xml</dc:format><dc:type
           rdf:resource="http://purl.org/dc/dcmitype/StillImage" /></cc:Work></rdf:RDF></metadata><defs
     id="defs6"><clipPath
       id="clipPath18"
       clipPathUnits="userSpaceOnUse"><path
         id="path16"
         d="M 0,142.017 H 368.067 V 0 H 0 Z" /></clipPath></defs><g
     transform="matrix(1.3333333,0,0,-1.3333333,0,189.356)"
     id="g10"><g
       id="g12"><g
         clip-path="url(#clipPath18)"
         id="g14"><g
           transform="translate(48.0249,46.2881)"
           id="g20"><path
             id="path22"
             style="fill:#0082ca;fill-opacity:1;fill-rule:nonzero;stroke:none"
             d="m 0,0 -0.192,-0.142 -0.201,-0.12 c -3.568,-2.469 -8.896,-4.119 -13.268,-4.119 h -0.006 c -6.408,0.14 -8.742,2.407 -8.87,8.573 0.139,7.105 2.515,9.295 10.518,9.8 L -0.973,14.509 -0.48,14.53 0,14.544 Z m 20.115,-3.494 c -0.355,1.193 -1.354,1.927 -2.557,1.927 -0.323,-0.017 -0.621,-0.036 -1.01,-0.125 -1.712,-0.412 -2.663,-0.537 -3.979,-0.63 -2.498,-0.12 -2.938,0.855 -3.103,3.663 v 38.446 c -0.075,0.891 -0.539,1.778 -1.223,2.314 l -0.251,0.16 C 7.914,42.325 7.833,42.405 7.727,42.458 5.641,43.687 2.17,44.674 -0.781,45.42 l -0.218,0.064 c -3.5,0.847 -7.373,1.293 -11.198,1.293 -2.251,0 -4.283,-0.17 -5.095,-0.274 -1.681,-0.162 -6.222,-0.918 -7.749,-1.44 -0.441,-0.142 -1.876,-0.823 -1.923,-2.174 0.025,-0.703 0.818,-2.951 0.818,-2.951 0.517,-1.574 1.063,-1.957 2.057,-2.16 0.798,-0.09 2.52,0.27 3.668,0.469 2.964,0.546 4.898,0.753 6.285,0.77 1.793,0.028 4.049,0.053 6.691,-0.33 5.02,-0.77 6.957,-2.313 6.957,-2.313 V 21.442 L -0.933,21.429 -11.656,21.16 c -14.343,-0.452 -20.978,-6.141 -20.883,-17.605 -0.023,-5.206 1.61,-9.383 4.718,-12.084 2.886,-2.533 7.12,-3.868 12.215,-3.868 h 0.019 c 5.851,0 10.88,1.798 15.783,5.683 l 0.469,0.358 0.24,-0.54 c 1.18,-2.598 3.191,-4.281 5.95,-4.984 1.237,-0.343 2.653,-0.517 4.462,-0.517 0.463,0 0.929,0.024 1.345,0.07 1.638,0.223 3.814,0.523 6.235,1.669 1.332,0.632 2.273,1.412 2.203,2.815 -0.053,1.24 -0.985,4.349 -0.985,4.349" /></g><g
           transform="translate(226.6558,34.1445)"
           id="g24"><path
             id="path26"
             style="fill:#0082ca;fill-opacity:1;fill-rule:nonzero;stroke:none"
             d="M 0,0 H -0.017 -5.218 C -6.022,0 -6.69,0.264 -7.104,0.722 -7.524,1.213 -7.709,1.875 -7.709,2.78 v 49.401 c -0.039,0.93 0.198,1.606 0.676,2.058 0.414,0.421 1.027,0.603 1.858,0.603 h 4.717 c 0.877,0 1.472,-0.171 1.936,-0.558 0.473,-0.399 0.724,-1.056 0.708,-1.843 l 0.051,-1.307 0.047,-1.111 0.741,0.808 c 2.211,2.383 6.003,5.228 11.466,5.228 0.769,0 2.11,-0.118 3.281,-0.335 0.982,-0.182 1.358,-1.175 1.288,-1.692 0,-0.264 -0.011,-0.469 -0.044,-0.653 l -0.78,-4.983 c -0.051,-0.868 -0.844,-1.504 -1.515,-1.504 -0.606,0.02 -0.944,0.067 -1.327,0.137 -0.571,0.086 -1.206,0.206 -2.334,0.206 -3.642,0 -7.715,-2.417 -10.433,-6.166 L 2.535,40.957 V 40.796 2.78 C 2.535,1.933 2.327,1.262 1.902,0.776 1.488,0.286 0.81,0 0,0" /></g><g
           transform="translate(194.4731,67.5767)"
           id="g28"><path
             id="path30"
             style="fill:#0082ca;fill-opacity:1;fill-rule:nonzero;stroke:none"
             d="m 0,0 h -23.956 c 0.33,12.087 4.941,17.028 12.516,17.028 7.378,0 11.551,-4.049 11.551,-13.526 C 0.111,2.761 0.111,0.876 0,0 m -11.216,24.726 c -13.404,0 -23.509,-9.331 -23.509,-30.549 0,-19.454 9.114,-29.008 26.258,-29.008 2.713,0 5.943,0.319 9.026,0.946 0.482,0.09 0.978,0.223 1.463,0.33 1.944,0.534 3.912,1.347 4.634,1.684 1.074,0.412 1.903,1.241 1.968,2.277 -0.294,1.551 -0.687,3.129 -1.139,4.647 -0.409,1.023 -1.333,1.668 -2.284,1.609 -0.325,0 -4.934,-1.003 -5.201,-1.079 -2.645,-0.682 -5.541,-1.081 -8.249,-1.081 -12.193,0 -15.824,5.829 -15.824,17.814 v 0.881 H 7.872 c 0.943,0.088 1.677,0.804 1.81,1.75 0,0.129 0.011,0.271 0.033,0.417 0.103,2.094 0.175,4.295 0.175,6.071 0,14.724 -7.154,23.291 -21.106,23.291" /></g><g
           transform="translate(258.8657,11.9033)"
           id="g32"><path
             id="path34"
             style="fill:#0082ca;fill-opacity:1;fill-rule:nonzero;stroke:none"
             d="m 0,0 h -0.35 c -1.88,0 -3.442,0.131 -4.966,0.433 -0.932,0.167 -1.282,1.382 -1.096,3.045 0,0 0.114,1.777 0.382,3.031 0.245,1.281 0.853,1.859 1.526,1.859 h 0.03 0.166 l 0.516,-0.021 c 0.308,-0.022 0.741,-0.082 1.147,-0.113 0.927,-0.1 1.878,-0.204 2.615,-0.204 6.228,0.072 9.587,2.35 11.971,8.116 l 2.872,7.013 0.272,0.747 0.101,0.306 -0.101,0.338 -19.183,50.718 c -0.084,0.223 -0.111,0.452 -0.111,0.661 0,0.196 0.027,0.558 0.294,0.86 0.196,0.215 0.534,0.369 0.91,0.369 h 7.268 c 1.057,0 1.845,-0.559 2.08,-1.374 l 12.63,-36.334 0.839,-2.431 0.867,2.431 13.057,36.063 c 0.276,1.011 1.093,1.658 2.044,1.658 h 0.055 l 0.196,-0.013 h 6.03 c 0.491,0 0.85,-0.098 1.101,-0.3 0.251,-0.212 0.35,-0.536 0.333,-0.775 0,-0.347 -0.082,-0.64 -0.185,-0.922 L 21.856,17.588 C 17.179,4.765 11.255,0 0,0" /></g><g
           transform="translate(345.3384,34.2832)"
           id="g36"><path
             id="path38"
             style="fill:#0082ca;fill-opacity:1;fill-rule:nonzero;stroke:none"
             d="m 0,0 c -1.249,0 -2.279,0.586 -2.868,1.66 l -11.463,17.694 -0.406,0.597 -0.387,-0.597 L -26.57,1.674 C -27.178,0.586 -28.209,0 -29.474,0 l -0.185,0.021 h -6.128 c -0.501,0 -0.861,0.124 -1.166,0.347 -0.3,0.248 -0.516,0.684 -0.475,1.099 0,0.512 0.175,1.047 0.475,1.488 l 16.587,25.17 0.191,0.255 -0.191,0.259 -15.281,23.559 c -0.271,0.435 -0.407,0.807 -0.396,1.158 0,0.989 0.91,1.585 1.777,1.596 h 5.752 c 1.241,0 2.213,-0.538 2.639,-1.383 l 10.762,-16.324 0.376,-0.565 0.371,0.565 10.705,16.223 c 0.476,0.941 1.458,1.484 2.581,1.484 h 5.893 c 0.851,0 1.781,-0.607 1.781,-1.59 0,-0.357 -0.131,-0.729 -0.401,-1.122 L -9.094,28.639 -9.274,28.38 -9.094,28.125 7.447,3.01 C 7.802,2.514 7.979,1.998 7.979,1.494 8.009,1.052 7.807,0.616 7.515,0.368 7.199,0.145 6.834,0.021 6.318,0.021 H 0.229 Z" /></g><g
           transform="translate(96.9951,34.1387)"
           id="g40"><path
             id="path42"
             style="fill:#0082ca;fill-opacity:1;fill-rule:nonzero;stroke:none"
             d="m 0,0 c -2.707,0 -5.317,0.436 -7.583,1.262 -2.075,0.722 -3.716,1.759 -4.885,3.045 -3.261,3.585 -3.548,8.045 -3.591,13.938 v 56.299 c 0,0.33 0.142,0.664 0.355,0.913 1.931,2.16 4.424,3.77 7.42,4.787 0.184,0.069 0.312,0.069 0.463,0.069 0.238,0 0.871,-0.042 1.388,-0.546 0.459,-0.48 0.68,-1.134 0.675,-1.99 V 17.891 c 0.023,-3.12 0.764,-5.594 2.135,-7.143 1.172,-1.286 3.066,-1.94 5.474,-1.94 0.584,0 1.244,0.046 2.032,0.141 1.753,0.251 3.439,0.747 4.55,1.096 0.304,0.131 0.575,0.185 0.9,0.185 0.951,0 1.779,-0.673 2.101,-1.673 0,0 0.851,-2.876 0.957,-4.234 C 12.458,3.154 11.411,2.369 10.443,2.025 9.21,1.532 4.86,0 0,0" /></g><g
           transform="translate(149.5967,42.7285)"
           id="g44"><path
             id="path46"
             style="fill:#0082ca;fill-opacity:1;fill-rule:nonzero;stroke:none"
             d="M 0,0 C -0.319,1.003 -1.147,1.674 -2.127,1.674 -2.429,1.674 -2.716,1.613 -3.015,1.499 -4.631,0.979 -7.066,0.305 -9.36,0.264 L -9.602,0.229 c -2.474,0 -4.33,0.675 -5.516,1.976 -1.116,1.23 -1.921,3.225 -1.982,6.959 v 0.213 l 0.307,29.642 h 12.129 c 0.65,0 1.185,0.076 1.688,0.458 0.606,0.471 0.701,1.256 0.684,1.686 v 3.733 c 0.017,0.803 -0.223,1.381 -0.675,1.75 -0.536,0.387 -1.134,0.418 -1.591,0.418 h -12.235 v 0.171 12.519 5.769 c 0,0.872 -0.213,1.511 -0.664,1.982 -0.506,0.495 -1.159,0.554 -1.388,0.554 -0.156,0 -0.287,0 -0.516,-0.067 -0.706,-0.263 -2.616,-0.927 -4.701,-2.395 -0.723,-0.526 -1.457,-1.182 -2.197,-1.925 -0.2,-0.256 -0.318,-0.573 -0.318,-0.887 L -26.87,47.257 h -6.264 c -0.611,0 -1.276,-0.153 -1.75,-0.656 -0.471,-0.514 -0.589,-1.153 -0.589,-1.806 v -3.409 c 0.011,-0.733 -0.022,-1.372 0.547,-1.995 0.644,-0.589 1.27,-0.541 1.999,-0.57 h 5.887 l -0.559,-27.883 0.013,-1.196 c 0.021,-5.91 0.306,-10.391 3.577,-14.013 2.515,-2.73 7.088,-4.297 12.527,-4.319 4.922,0 8.744,1.303 10.494,2.026 0.935,0.395 1.987,1.15 1.945,2.322 C 0.957,-3.133 0,0 0,0" /></g></g></g></g></svg>